DM Object:Mesh 1 MPI processes
  type: plex
Mesh 'Mesh':
Max sizes cone: 3 support: 6
orientation is missing
cap --> base:
[0]: 8 ----> 17
[0]: 8 ----> 19
[0]: 9 ----> 17
[0]: 9 ----> 18
[0]: 9 ----> 23
[0]: 9 ----> 27
[0]: 10 ----> 24
[0]: 10 ----> 25
[0]: 10 ----> 27
[0]: 11 ----> 18
[0]: 11 ----> 19
[0]: 11 ----> 21
[0]: 11 ----> 22
[0]: 12 ----> 20
[0]: 12 ----> 22
[0]: 12 ----> 23
[0]: 12 ----> 24
[0]: 12 ----> 26
[0]: 12 ----> 31
[0]: 13 ----> 25
[0]: 13 ----> 26
[0]: 13 ----> 28
[0]: 13 ----> 29
[0]: 14 ----> 20
[0]: 14 ----> 21
[0]: 14 ----> 32
[0]: 15 ----> 28
[0]: 15 ----> 30
[0]: 15 ----> 31
[0]: 15 ----> 32
[0]: 16 ----> 29
[0]: 16 ----> 30
[0]: 17 ----> 0
[0]: 18 ----> 0
[0]: 18 ----> 2
[0]: 19 ----> 0
[0]: 20 ----> 1
[0]: 20 ----> 7
[0]: 21 ----> 1
[0]: 22 ----> 1
[0]: 22 ----> 2
[0]: 23 ----> 2
[0]: 23 ----> 4
[0]: 24 ----> 3
[0]: 24 ----> 4
[0]: 25 ----> 3
[0]: 26 ----> 3
[0]: 26 ----> 6
[0]: 27 ----> 4
[0]: 28 ----> 5
[0]: 28 ----> 6
[0]: 29 ----> 5
[0]: 30 ----> 5
[0]: 31 ----> 6
[0]: 31 ----> 7
[0]: 32 ----> 7
base <-- cap:
[0]: 0 <---- 17 (0)
[0]: 0 <---- 18 (0)
[0]: 0 <---- 19 (0)
[0]: 1 <---- 20 (0)
[0]: 1 <---- 21 (0)
[0]: 1 <---- 22 (0)
[0]: 2 <---- 18 (-2)
[0]: 2 <---- 23 (0)
[0]: 2 <---- 22 (-2)
[0]: 3 <---- 24 (0)
[0]: 3 <---- 25 (0)
[0]: 3 <---- 26 (0)
[0]: 4 <---- 24 (-2)
[0]: 4 <---- 23 (-2)
[0]: 4 <---- 27 (0)
[0]: 5 <---- 28 (0)
[0]: 5 <---- 29 (0)
[0]: 5 <---- 30 (0)
[0]: 6 <---- 28 (-2)
[0]: 6 <---- 31 (0)
[0]: 6 <---- 26 (-2)
[0]: 7 <---- 31 (-2)
[0]: 7 <---- 32 (0)
[0]: 7 <---- 20 (-2)
[0]: 17 <---- 8 (0)
[0]: 17 <---- 9 (0)
[0]: 18 <---- 9 (0)
[0]: 18 <---- 11 (0)
[0]: 19 <---- 11 (0)
[0]: 19 <---- 8 (0)
[0]: 20 <---- 12 (0)
[0]: 20 <---- 14 (0)
[0]: 21 <---- 14 (0)
[0]: 21 <---- 11 (0)
[0]: 22 <---- 11 (0)
[0]: 22 <---- 12 (0)
[0]: 23 <---- 9 (0)
[0]: 23 <---- 12 (0)
[0]: 24 <---- 12 (0)
[0]: 24 <---- 10 (0)
[0]: 25 <---- 10 (0)
[0]: 25 <---- 13 (0)
[0]: 26 <---- 13 (0)
[0]: 26 <---- 12 (0)
[0]: 27 <---- 9 (0)
[0]: 27 <---- 10 (0)
[0]: 28 <---- 15 (0)
[0]: 28 <---- 13 (0)
[0]: 29 <---- 13 (0)
[0]: 29 <---- 16 (0)
[0]: 30 <---- 16 (0)
[0]: 30 <---- 15 (0)
[0]: 31 <---- 15 (0)
[0]: 31 <---- 12 (0)
[0]: 32 <---- 15 (0)
[0]: 32 <---- 14 (0)
coordinates with 1 fields
  field 0 with 2 components
Process 0:
  (   8) dim  2 offset   0 0 0
  (   9) dim  2 offset   2 0.5 0
  (  10) dim  2 offset   4 1 0
  (  11) dim  2 offset   6 0 0.5
  (  12) dim  2 offset   8 0.5 0.5
  (  13) dim  2 offset  10 1 0.5
  (  14) dim  2 offset  12 0 1
  (  15) dim  2 offset  14 0.5 1
  (  16) dim  2 offset  16 1 1
Label 'marker':
[0]: 8 (1)
[0]: 9 (1)
[0]: 10 (1)
[0]: 11 (1)
[0]: 13 (1)
[0]: 14 (1)
[0]: 15 (1)
[0]: 16 (1)
[0]: 17 (1)
[0]: 19 (1)
[0]: 21 (1)
[0]: 25 (1)
[0]: 27 (1)
[0]: 29 (1)
[0]: 30 (1)
[0]: 32 (1)
[0]: 12 (-1)
[0]: 22 (-1)
[0]: 23 (-1)
[0]: 26 (-1)
[0]: 31 (-1)
DM Object:Submesh 1 MPI processes
  type: plex
Mesh 'Submesh':
Max sizes cone: 3 support: 5
orientation is missing
cap --> base:
[0]: 4 ----> 11
[0]: 4 ----> 13
[0]: 5 ----> 11
[0]: 5 ----> 12
[0]: 5 ----> 17
[0]: 6 ----> 18
[0]: 6 ----> 19
[0]: 7 ----> 12
[0]: 7 ----> 13
[0]: 7 ----> 15
[0]: 7 ----> 16
[0]: 8 ----> 14
[0]: 8 ----> 16
[0]: 8 ----> 17
[0]: 8 ----> 18
[0]: 8 ----> 20
[0]: 9 ----> 19
[0]: 9 ----> 20
[0]: 10 ----> 14
[0]: 10 ----> 15
[0]: 11 ----> 0
[0]: 12 ----> 0
[0]: 12 ----> 2
[0]: 13 ----> 0
[0]: 14 ----> 1
[0]: 15 ----> 1
[0]: 16 ----> 1
[0]: 16 ----> 2
[0]: 17 ----> 2
[0]: 18 ----> 3
[0]: 19 ----> 3
[0]: 20 ----> 3
base <-- cap:
[0]: 0 <---- 11 (0)
[0]: 0 <---- 12 (0)
[0]: 0 <---- 13 (0)
[0]: 1 <---- 14 (0)
[0]: 1 <---- 15 (0)
[0]: 1 <---- 16 (0)
[0]: 2 <---- 12 (-2)
[0]: 2 <---- 17 (0)
[0]: 2 <---- 16 (-2)
[0]: 3 <---- 18 (0)
[0]: 3 <---- 19 (0)
[0]: 3 <---- 20 (0)
[0]: 11 <---- 4 (0)
[0]: 11 <---- 5 (0)
[0]: 12 <---- 5 (0)
[0]: 12 <---- 7 (0)
[0]: 13 <---- 7 (0)
[0]: 13 <---- 4 (0)
[0]: 14 <---- 8 (0)
[0]: 14 <---- 10 (0)
[0]: 15 <---- 10 (0)
[0]: 15 <---- 7 (0)
[0]: 16 <---- 7 (0)
[0]: 16 <---- 8 (0)
[0]: 17 <---- 5 (0)
[0]: 17 <---- 8 (0)
[0]: 18 <---- 8 (0)
[0]: 18 <---- 6 (0)
[0]: 19 <---- 6 (0)
[0]: 19 <---- 9 (0)
[0]: 20 <---- 9 (0)
[0]: 20 <---- 8 (0)
Vec_0x84000000_0 with 1 fields
  field 0 with 2 components
Process 0:
  (   4) dim  2 offset   0 0 0
  (   5) dim  2 offset   2 0.5 0
  (   6) dim  2 offset   4 1 0
  (   7) dim  2 offset   6 0 0.5
  (   8) dim  2 offset   8 0.5 0.5
  (   9) dim  2 offset  10 1 0.5
  (  10) dim  2 offset  12 0 1
Label 'subpoint_map':
[0]: 0 (2)
[0]: 1 (2)
[0]: 2 (2)
[0]: 3 (2)
[0]: 17 (1)
[0]: 18 (1)
[0]: 19 (1)
[0]: 20 (1)
[0]: 21 (1)
[0]: 22 (1)
[0]: 23 (1)
[0]: 24 (1)
[0]: 25 (1)
[0]: 26 (1)
[0]: 8 (0)
[0]: 9 (0)
[0]: 10 (0)
[0]: 11 (0)
[0]: 12 (0)
[0]: 13 (0)
[0]: 14 (0)
DM Object:Submesh 1 MPI processes
  type: plex
Mesh 'Submesh':
Max sizes cone: 3 support: 5
orientation is missing
cap --> base:
[0]: 4 ----> 12
[0]: 4 ----> 15
[0]: 5 ----> 13
[0]: 5 ----> 15
[0]: 6 ----> 11
[0]: 6 ----> 12
[0]: 6 ----> 13
[0]: 6 ----> 14
[0]: 6 ----> 19
[0]: 7 ----> 14
[0]: 7 ----> 16
[0]: 7 ----> 17
[0]: 8 ----> 11
[0]: 8 ----> 20
[0]: 9 ----> 16
[0]: 9 ----> 18
[0]: 9 ----> 19
[0]: 9 ----> 20
[0]: 10 ----> 17
[0]: 10 ----> 18
[0]: 11 ----> 3
[0]: 12 ----> 0
[0]: 13 ----> 0
[0]: 14 ----> 2
[0]: 15 ----> 0
[0]: 16 ----> 1
[0]: 16 ----> 2
[0]: 17 ----> 1
[0]: 18 ----> 1
[0]: 19 ----> 2
[0]: 19 ----> 3
[0]: 20 ----> 3
base <-- cap:
[0]: 0 <---- 13 (-2)
[0]: 0 <---- 12 (-2)
[0]: 0 <---- 15 (0)
[0]: 1 <---- 16 (0)
[0]: 1 <---- 17 (0)
[0]: 1 <---- 18 (0)
[0]: 2 <---- 16 (-2)
[0]: 2 <---- 19 (0)
[0]: 2 <---- 14 (-2)
[0]: 3 <---- 19 (-2)
[0]: 3 <---- 20 (0)
[0]: 3 <---- 11 (-2)
[0]: 11 <---- 6 (0)
[0]: 11 <---- 8 (0)
[0]: 12 <---- 4 (0)
[0]: 12 <---- 6 (0)
[0]: 13 <---- 6 (0)
[0]: 13 <---- 5 (0)
[0]: 14 <---- 7 (0)
[0]: 14 <---- 6 (0)
[0]: 15 <---- 4 (0)
[0]: 15 <---- 5 (0)
[0]: 16 <---- 9 (0)
[0]: 16 <---- 7 (0)
[0]: 17 <---- 7 (0)
[0]: 17 <---- 10 (0)
[0]: 18 <---- 10 (0)
[0]: 18 <---- 9 (0)
[0]: 19 <---- 9 (0)
[0]: 19 <---- 6 (0)
[0]: 20 <---- 9 (0)
[0]: 20 <---- 8 (0)
Vec_0x84000000_1 with 1 fields
  field 0 with 2 components
Process 0:
  (   4) dim  2 offset   0 0.5 0
  (   5) dim  2 offset   2 1 0
  (   6) dim  2 offset   4 0.5 0.5
  (   7) dim  2 offset   6 1 0.5
  (   8) dim  2 offset   8 0 1
  (   9) dim  2 offset  10 0.5 1
  (  10) dim  2 offset  12 1 1
Label 'subpoint_map':
[0]: 4 (2)
[0]: 5 (2)
[0]: 6 (2)
[0]: 7 (2)
[0]: 20 (1)
[0]: 23 (1)
[0]: 24 (1)
[0]: 26 (1)
[0]: 27 (1)
[0]: 28 (1)
[0]: 29 (1)
[0]: 30 (1)
[0]: 31 (1)
[0]: 32 (1)
[0]: 9 (0)
[0]: 10 (0)
[0]: 12 (0)
[0]: 13 (0)
[0]: 14 (0)
[0]: 15 (0)
[0]: 16 (0)
WARNING! There are options you set that were not used!
WARNING! could be spelling mistake, etc!
Option left: name:-dmlabel_view (no value)