  0 SNES Function norm 13 
    0 SNES Function norm 13 
    1 SNES Function norm 10.0538 
      0 SNES Function norm 18.9566 
      1 SNES Function norm 12.4586 
      0 SNES Function norm 6.88663 
      1 SNES Function norm 2.32223 
    0 SNES Function norm 7.19236 
    1 SNES Function norm 1.35036 
  1 SNES Function norm 1.35036 
    0 SNES Function norm 1.35036 
    1 SNES Function norm 1.22072 
      0 SNES Function norm 2.31585 
      1 SNES Function norm 1.37852 
      0 SNES Function norm 0.8865 
      1 SNES Function norm 0.253559 
    0 SNES Function norm 0.875687 
    1 SNES Function norm 0.238558 
  2 SNES Function norm 0.238558 
    0 SNES Function norm 0.238558 
    1 SNES Function norm 0.146676 
      0 SNES Function norm 0.264183 
      1 SNES Function norm 0.193296 
      0 SNES Function norm 0.115933 
      1 SNES Function norm 0.0372776 
    0 SNES Function norm 0.128315 
    1 SNES Function norm 0.028189 
  3 SNES Function norm 0.028189 
    0 SNES Function norm 0.028189 
    1 SNES Function norm 0.0212243 
      0 SNES Function norm 0.0385274 
      1 SNES Function norm 0.0301707 
      0 SNES Function norm 0.0171329 
      1 SNES Function norm 0.00527259 
    0 SNES Function norm 0.0170834 
    1 SNES Function norm 0.00449957 
  4 SNES Function norm 0.00449957 
    0 SNES Function norm 0.00449957 
    1 SNES Function norm 0.00343646 
      0 SNES Function norm 0.00581426 
      1 SNES Function norm 0.00452594 
      0 SNES Function norm 0.00271535 
      1 SNES Function norm 0.00079926 
    0 SNES Function norm 0.00285893 
    1 SNES Function norm 0.000982329 
  5 SNES Function norm 0.000982329 
    0 SNES Function norm 0.000982329 
    1 SNES Function norm 0.000654239 
      0 SNES Function norm 0.00095393 
      1 SNES Function norm 0.000701388 
      0 SNES Function norm 0.000433908 
      1 SNES Function norm 0.00013282 
    0 SNES Function norm 0.000595057 
    1 SNES Function norm 0.000232751 
  6 SNES Function norm 0.000232751 
    0 SNES Function norm 0.000232751 
    1 SNES Function norm 0.000147038 
      0 SNES Function norm 0.000183604 
      1 SNES Function norm 0.000114791 
      0 SNES Function norm 6.9997e-05 
      1 SNES Function norm 2.44127e-05 
    0 SNES Function norm 0.000141046 
    1 SNES Function norm 5.99786e-05 
  7 SNES Function norm 5.99786e-05 
    0 SNES Function norm 5.99786e-05 
    1 SNES Function norm 3.63807e-05 
      0 SNES Function norm 4.00456e-05 
      1 SNES Function norm 2.00381e-05 
      0 SNES Function norm 1.26068e-05 
      1 SNES Function norm 4.82575e-06 
    0 SNES Function norm 3.60773e-05 
    1 SNES Function norm 1.5726e-05 
  8 SNES Function norm 1.5726e-05 
    0 SNES Function norm 1.5726e-05 
    1 SNES Function norm 9.34088e-06 
      0 SNES Function norm 9.55048e-06 
      1 SNES Function norm 3.83272e-06 
      0 SNES Function norm 2.7814e-06 
      1 SNES Function norm 1.02058e-06 
    0 SNES Function norm 9.45798e-06 
    1 SNES Function norm 4.11202e-06 
  9 SNES Function norm 4.11202e-06 
    0 SNES Function norm 4.11202e-06 
    1 SNES Function norm 2.41026e-06 
      0 SNES Function norm 2.34997e-06 
      1 SNES Function norm 8.04003e-07 
      0 SNES Function norm 6.9627e-07 
      1 SNES Function norm 2.26008e-07 
    0 SNES Function norm 2.47993e-06 
    1 SNES Function norm 1.06913e-06 
 10 SNES Function norm 1.06913e-06 
    0 SNES Function norm 1.06913e-06 
    1 SNES Function norm 6.21786e-07 
      0 SNES Function norm 5.86005e-07 
      1 SNES Function norm 1.81497e-07 
      0 SNES Function norm 1.79324e-07 
      1 SNES Function norm 5.17693e-08 
    0 SNES Function norm 6.47591e-07 
    1 SNES Function norm 2.77471e-07 
 11 SNES Function norm 2.77471e-07 
    0 SNES Function norm 2.77471e-07 
    1 SNES Function norm 1.60621e-07 
      0 SNES Function norm 1.47419e-07 
      1 SNES Function norm 4.29766e-08 
      0 SNES Function norm 4.6056e-08 
      1 SNES Function norm 1.21628e-08 
    0 SNES Function norm 1.68796e-07 
    1 SNES Function norm 7.20956e-08 
 12 SNES Function norm 7.20956e-08 
