Linear solve converged due to CONVERGED_RTOL iterations 8
Linear solve converged due to CONVERGED_RTOL iterations 8
Linear solve converged due to CONVERGED_RTOL iterations 8
[0]main |b-Ax|/|b|=2.187505e-04, |b|=4.969822e+00, emax=9.923793e-01
